45
Nuclear Repulsion Energy: 2276.1473826 a.u.
C      -0.4077016700   -0.4400377500   -0.1614400174
C       1.8741756507   -4.3488161353   -1.1734913274
C      -0.5684470580    0.4626162949    1.2544104500
C       2.7695363120   -3.6994727478   -0.1654855449
C      -2.0272739511    0.6833542034    1.5402663288
C       2.3013844837   -2.2009258732    0.2039446264
C      -2.6143902920    1.3849840594    0.3191328530
C       1.6727648514   -1.4557469325   -1.0684644872
C      -2.6970505424    0.2517725376   -0.8422467401
C       1.0677484839   -2.4333658886   -2.0851541112
C      -3.1886775682    0.4962930963   -2.2608732705
C       0.8405862641   -1.6516549083   -3.3098259256
H      -0.6324131373   -1.5752361854    0.0652803385
H       0.9767983510   -4.5860147369   -0.9097205408
H       0.8485626609   -0.3205844806    2.4330944835
H      -2.9927015842    1.7880307521    3.0575356587
H      -2.4850319722    2.9189979226   -0.9085527755
H      -2.5504661306   -1.2078061016   -3.1213195520
H       2.7394256573   -6.2131555433   -0.6549550193
H       3.5247234553   -3.9723214496    1.7503906514
H       3.8004217199   -1.5081674990    1.4280136918
H       2.1133312201   -0.5225704844   -4.5345992554
H       0.1595288993    1.4450404022    1.3480814090
H       3.6912793606   -3.5627514227   -0.6603237119
H      -2.5680045765   -0.3298112530    1.6262028647
H       1.6267091389   -2.3356511731    0.9994767455
H      -3.5347999413    1.5869834476    0.5306521771
H       2.4526330036   -0.8734179922   -1.7548352900
H      -2.8344065749   -0.7601904513   -0.1909282686
H      -0.0505653649   -2.9078140614   -1.8108140779
H      -2.7303990089    1.2228866431   -3.0131778528
H       0.2837224731   -0.8065117979   -2.8712025042
H      -4.2427951821    0.8263012510   -2.1130656677
H       0.3201139773   -2.3380300121   -4.0194167510
O       0.8246303655   -0.3142515998   -0.8055737349
O       2.6571337905   -5.5800926570   -1.6379878758
O      -0.2410542344   -0.3258825496    2.4740685598
O       3.0235884681   -4.5331321761    1.0144506174
O      -2.1220448023    1.7593653854    2.5963826711
O       3.5893483030   -1.3383121445    0.4629532374
O      -1.9725076285    2.6324432010   -0.1219972905
O      -1.3394304036   -0.0962034167   -1.2304025904
O       1.8426238734   -3.6089254454   -2.3723830641
O      -3.4814592716   -0.6696189556   -2.8858137593
O       2.0382814779   -1.4605487101   -3.9790166422
